"","A","B","D","F","H","C","E","G","I"
"Signature.1",0.981124493137584,0.772575761737625,1,0.936928624447285,0.947711031610716,0.843847570297292,0.964389083260789,1,0.89157550491305
"Signature.3",0.0188755068624163,0.227424238262375,0,0.0630713755527148,0.0522889683892838,0.156152429702708,0,0,0.10842449508695
"Signature.5",0,0,0,0,0,0,0,0,0
"Signature.2",0,0,0,0,0,0,0,0,0
"Signature.13",0,0,0,0,0,0,0.0356109167392113,0,0
