"","A","C","D;F;G","B","E"
"Signature.1",0.875529263975078,1,1,0.844291726987951,1
"Signature.3",0.124470736024921,0,0,0.155708273012049,0
"Signature.5",0,0,0,0,0
"Signature.2",0,0,0,0,0
"Signature.13",0,0,0,0,0
