"","A","C","E;H","B","D","F","G"
"Signature.1",0.892323582459818,0.773723339847137,0.884457873450765,0.910306904059496,0.877904108350706,0.834870840560129,0.831204033280625
"Signature.3",0.0522882314246786,0.186978458518635,0.0737548883337045,0.0272436712185236,0.0789475845189656,0.129190799549783,0.132536411834674
"Signature.5",0,0,0,0,0,0,0
"Signature.2",0,0,0,0,0,0,0
"Signature.13",0.0553881861155031,0.0392982016342281,0.0417872382155305,0.0624494247219804,0.0431483071303289,0.0359383598900882,0.0362595548847007
