"","1;5","2","3","4"
"Signature.1",0.736240180473257,0,0.326517263528554,0.79031627300367
"Signature.2",0,0,0,0
"Signature.4",0.0185103587055841,0,0.00884574405752244,0
"Signature.5",0.20118172628975,0.587509609488032,0,0.20968372699633
"Signature.6",0,0.412490390511969,0.664636992413923,0
"Signature.13",0.044067734531409,0,0,0
"Signature.17",0,0,0,0
