"","1","2;3;8","4","5;7;9","6"
"Signature.1",0.378954380503128,0.968785365740038,0.666023703241881,0,0
"Signature.2",0,0,0,0,0
"Signature.4",0.54598382049038,0,0,0,0.285617456887465
"Signature.5",0.0497920651658004,0,0,0.448666881228556,0.714382543112535
"Signature.6",0.0252697338406914,0,0.18874032051707,0.551333118771444,0
"Signature.13",0,0,0,0,0
"Signature.17",0,0.0312146342599616,0.145235976241049,0,0
