"","1","2;4","3"
"Signature.1",0.517713342825374,0.856975304917365,1
"Signature.2",0.010864349808566,0,0
"Signature.4",0.175774873776885,0,0
"Signature.5",0.295647433589175,0.143024695082635,0
"Signature.6",0,0,0
"Signature.13",0,0,0
"Signature.17",0,0,0
