"","1","2","3","4;6;7","5"
"Signature.1",0.136651185927619,0.556205744181641,0.696602331861111,0.45377883005616,0.444748026917574
"Signature.2",0.0311898484800974,0.253754216551645,0.223871399676959,0.0492896621696467,0.211390101496353
"Signature.4",0.567610936095985,0,0,0.192639909321424,0
"Signature.5",0.221039716987355,0.05961607170557,0,0.304291598452769,0
"Signature.6",0.0435083125089441,0.020858117839153,0,0,0.343861871586073
"Signature.13",0,0.109565849721991,0.0295820926792101,0,0
"Signature.17",0,0,0.0499441757827194,0,0
