"","1","2;9","3;4;5;7;8"
"Signature.1",0.278886079611636,0.397705444025899,0.521516666385623
"Signature.2",0,0.0548334815221584,0
"Signature.4",0.265421756677042,0.0464313768962835,0.020584755347421
"Signature.5",0.455692163711322,0.473347806240883,0.241052377622089
"Signature.6",0,0,0.107390183118107
"Signature.13",0,0.0276818913147761,0.109456017526759
"Signature.17",0,0,0
