"","1","2","3;4;5;7;8;9","6","10"
"Signature.1",0.336082181792448,0.372797744197861,0.913473177266749,0.495764082466579,1
"Signature.2",0,0,0.086526822733251,0.293678644624209,0
"Signature.4",0.663917818207552,0.151781846491879,0,0,0
"Signature.5",0,0.335502724538191,0,0,0
"Signature.6",0,0.13991768477207,0,0.065125612261217,0
"Signature.13",0,0,0,0.145431660647996,0
"Signature.17",0,0,0,0,0
