"","1","2;5","3;4"
"Signature.1",0.225620281094367,0.348743142524409,1
"Signature.2",0.0684162304670362,0,0
"Signature.4",0.492079082633636,0,0
"Signature.5",0.059241414755792,0,0
"Signature.6",0.102115529606891,0.651256857475591,0
"Signature.13",0.0525274614422782,0,0
"Signature.17",0,0,0
