"","1;2;3;4;5;6;7;8;11"
"Signature.1",0.529113201967979
"Signature.2",0.148225501371616
"Signature.4",0.187817976011068
"Signature.5",0
"Signature.6",0
"Signature.13",0.134843320649336
"Signature.17",0
