"","1","2;3;4;5;8;9","6","7","10"
"Signature.1",0.336082181792448,0.684519809236165,0.495764082466579,0.526672758987279,1
"Signature.2",0,0.105631944140359,0.293678644624209,0,0
"Signature.4",0.663917818207552,0.186215864976337,0,0,0
"Signature.5",0,0,0,0,0
"Signature.6",0,0.0236323816471378,0.065125612261217,0.473327241012721,0
"Signature.13",0,0,0.145431660647996,0,0
"Signature.17",0,0,0,0,0
