"","1;2;3"
"Signature.1",0.142674523886359
"Signature.2",0.0288989004575014
"Signature.4",0.279712492223771
"Signature.5",0.475314759293907
"Signature.6",0.0464174572456915
"Signature.13",0.0269818668927701
"Signature.17",0
