"","1;2;3;4;5;7;8;9"
"Signature.1",0.145745967449014
"Signature.2",0.020363561035363
"Signature.4",0.599249701199777
"Signature.5",0.133459405159512
"Signature.6",0.101181365156334
"Signature.13",0
"Signature.17",0
