"","1;4;5","2","3;6"
"Signature.1",0.249151759143401,1,0.464276200315079
"Signature.2",0.026793302664315,0,0
"Signature.4",0.399277760099944,0,0.293824837948321
"Signature.5",0.254750212855758,0,0
"Signature.6",0.0700269652365824,0,0
"Signature.13",0,0,0
"Signature.17",0,0,0.241898941881221
