"","1;10","2;6","3;4;5;7;8;9"
"Signature.1",0.33641446682812,0.357667536223046,0.913473177266749
"Signature.2",0,0.0951837425351469,0.086526822733251
"Signature.4",0.66358553317188,0.0973957419059849,0
"Signature.5",0,0.217601509212322,0
"Signature.6",0,0.164355737142686,0
"Signature.13",0,0.0677957329808141,0
"Signature.17",0,0,0
