"","1","2;3;4;5"
"Signature.1",0.439199902757224,0.643576224828334
"Signature.2",0.0255103167471196,0.0106938716303678
"Signature.4",0.194674119546474,0.112519694902611
"Signature.5",0.340615660949182,0.134457752088534
"Signature.6",0,0
"Signature.13",0,0.0987524565501531
"Signature.17",0,0
