"","1","2","3","5","6"
"Signature.1",0.142789652270266,0.318286864084988,0.428718965130541,0.882991345439889,0.0329036621873518
"Signature.2",0.0497463721695358,0.304928990478652,0.42110233637994,0.109282155398902,0
"Signature.4",0.752228127170665,0.0323609230612337,0,0,0.65005730493482
"Signature.5",0,0.14402449372928,0,0,0.317039032877828
"Signature.6",0.0376243200553779,0,0.15017869848952,0.00772649916120933,0
"Signature.13",0.0176115283341554,0.200398728645846,0,0,0
"Signature.17",0,0,0,0,0
