"","1","2;3;4;5;9","6;7"
"Signature.1",0.146934192073056,0.574058063882978,0.558962812630385
"Signature.2",0.0387688992713382,0.0197709920917338,0
"Signature.4",0.779267635603499,0.138982048469521,0
"Signature.5",0,0.163434008764906,0.441037187369615
"Signature.6",0.0350292730521066,0,0
"Signature.13",0,0.0476305893906957,0
"Signature.17",0,0.0561242974001649,0
