"","1;4","2","3;6","5"
"Signature.1",0.0930415177973328,0.315168618423014,0.516770402919225,1
"Signature.2",0,0,0.0418804519098781,0
"Signature.4",0.73906162810843,0.218846059922255,0,0
"Signature.5",0.155333968384016,0.285066910743815,0.441349145170897,0
"Signature.6",0.0125628857102207,0.180918410910916,0,0
"Signature.13",0,0,0,0
"Signature.17",0,0,0,0
