"","1","2;3;4;5;7;8;9;10","6"
"Signature.1",0.336082181792448,0.734231226289931,0.495764082466579
"Signature.2",0,0.0825988282616405,0.293678644624209
"Signature.4",0.663917818207552,0.106529999016743,0
"Signature.5",0,0,0
"Signature.6",0,0.0766399464316861,0.065125612261217
"Signature.13",0,0,0.145431660647996
"Signature.17",0,0,0
