"","1","2","3","4"
"Signature.1",1,0,1,0
"Signature.2",0,0.140928301483212,0,0
"Signature.4",0,0,0,0.750715428039962
"Signature.5",0,0,0,0.0159546066245279
"Signature.6",0,0.859071698516788,0,0.23332996533551
"Signature.13",0,0,0,0
"Signature.17",0,0,0,0
