"","1;2;4","3"
"Signature.1",0.54109794037885,1
"Signature.2",0.127084187692599,0
"Signature.4",0.0367128801230949,0
"Signature.5",0.234492351017823,0
"Signature.6",0.0606126407876329,0
"Signature.13",0,0
"Signature.17",0,0
