"","1","2","3","4;6","5;8"
"Signature.1",0.684679997166786,0.537367504881246,1,1,0.904440346134606
"Signature.2",0.0562220514022571,0.0111926914542942,0,0,0
"Signature.4",0,0.174068861279876,0,0,0
"Signature.5",0,0.277370942384584,0,0,0
"Signature.6",0.163626394232873,0,0,0,0
"Signature.13",0.0954715571980842,0,0,0,0.0955596538653939
"Signature.17",0,0,0,0,0
