"","1;6;7;9;10","2;3;4;5;8"
"Signature.1",0.337679743568337,0.639187450697937
"Signature.2",0,0.110388507854243
"Signature.4",0.662320256431663,0.21534039120566
"Signature.5",0,0
"Signature.6",0,0.0350836502421605
"Signature.13",0,0
"Signature.17",0,0
