"","1;4;7;9","2;3;5;6;8"
"Signature.1",0.254375187950728,0.781484918702122
"Signature.2",0,0.0622416400725365
"Signature.4",0.573439904342886,0
"Signature.5",0.172184907706386,0.107479337156963
"Signature.6",0,0
"Signature.13",0,0
"Signature.17",0,0.0487941040683781
