"","1;3;4;5;6;8;9","2"
"Signature.1",0.209767862720027,0.621720374452255
"Signature.2",0.0926819961634694,0.28359398303273
"Signature.4",0.342906558999605,0
"Signature.5",0.264176227698198,0
"Signature.6",0,0.0946856425150154
"Signature.13",0.0904673544187009,0
"Signature.17",0,0
