"","1","2","3","4","5"
"Signature.1",0.256430047524151,0.349666913166629,0.578464655565794,0.80117265640731,0
"Signature.2",0,0,0.421535344434206,0,0
"Signature.4",0.547414159934999,0,0,0,0
"Signature.5",0.19615579254085,0.0677884678387155,0,0,0.956444197417027
"Signature.6",0,0.582544618994656,0,0,0.0435558025829729
"Signature.13",0,0,0,0.19882734359269,0
"Signature.17",0,0,0,0,0
