"","1","2","3","4","5;6;7;8"
"Signature.1",0.115906912513269,0.0360574646831289,0.227564014955698,0.393118923954298,1
"Signature.2",0,0.119328177652687,0,0.189584899804858,0
"Signature.4",0.829583066713901,0.302909688374712,0.134339348293121,0,0
"Signature.5",0.0301334371174138,0.541704669289472,0.219531440941986,0,0
"Signature.6",0.0243765836554162,0,0.418565195809195,0.417296176240844,0
"Signature.13",0,0,0,0,0
"Signature.17",0,0,0,0,0
