"","1;3;4;5;6","2"
"Signature.1",0.249348961588752,1
"Signature.2",0.0267837652396102,0
"Signature.4",0.399208817608418,0
"Signature.5",0.254743152205507,0
"Signature.6",0.0699153033577127,0
"Signature.13",0,0
"Signature.17",0,0
