"","1","2","3","4;7;8;9","5"
"Signature.1",0.0100425554214854,0.491035555965992,0.336116821722028,0.712615758421089,0.824643491252166
"Signature.2",0,0.0516843188413549,0,0.0244569497321174,0
"Signature.4",0.691400431571817,0.303048022738578,0.0966880840820214,0.0808475805295812,0.0499445980107446
"Signature.5",0.157624535577589,0.0552592063516144,0.189689946179216,0.182079711317212,0
"Signature.6",0.140932477429108,0.0989728961024606,0.377505148016735,0,0
"Signature.13",0,0,0,0,0
"Signature.17",0,0,0,0,0.12541191073709
