"","1;2","3","4;5;6;8"
"Signature.1",0.631935105526087,1,1
"Signature.2",0.0347352804901015,0,0
"Signature.4",0.0414320073349344,0,0
"Signature.5",0.125045282907249,0,0
"Signature.6",0.104053968912295,0,0
"Signature.13",0.0627983548293329,0,0
"Signature.17",0,0,0
