"","1;2;3;4;5;7;8;9;10;11;12;14"
"Signature.1",0.13597679588077
"Signature.2",0.0262466121869062
"Signature.4",0.517337927016245
"Signature.5",0.290651170990211
"Signature.6",0.0297874939258683
"Signature.13",0
"Signature.17",0
