"","1","2;4;7;8;9","3","5"
"Signature.1",0.0100425554214854,0.550050995693589,0.336116821722028,0.824643491252166
"Signature.2",0,0.04447646892151,0,0
"Signature.4",0.691400431571817,0.260601783379689,0.0966880840820214,0.0499445980107446
"Signature.5",0.157624535577589,0.0768673799111261,0.189689946179216,0
"Signature.6",0.140932477429108,0.0680033720940857,0.377505148016735,0
"Signature.13",0,0,0,0
"Signature.17",0,0,0,0.12541191073709
