"","1","2","3;6;7;8;11","4","5"
"Signature.1",0.527985729633212,0.618867568479533,0.192603457752449,0.0734212431656772,0
"Signature.2",0.146430406840865,0.228904440421982,0.284925580859939,0,0.300735783722812
"Signature.4",0.187656141349532,0.0136126170012075,0,0.0519478453191936,0.0528872627118598
"Signature.5",0,0.138615374097277,0.223911742137134,0.280796748259746,0.325722927943765
"Signature.6",0,0,0.22961465730632,0.453982533945904,0.320654025621563
"Signature.13",0.137927722176391,0,0,0,0
"Signature.17",0,0,0.0689445619441585,0.13985162930948,0
