"","1;10","2;3;4;5;6;8;9","7"
"Signature.1",0.33641446682812,0.672528181714655,0.526672758987279
"Signature.2",0,0.129995974412529,0
"Signature.4",0.66358553317188,0.176197452792991,0
"Signature.5",0,0,0
"Signature.6",0,0.0212783910798243,0.473327241012721
"Signature.13",0,0,0
"Signature.17",0,0,0
