"","1;2;3;4;5;6;7;8"
"Signature.1",0.130188752975199
"Signature.2",0
"Signature.4",0.823697269478249
"Signature.5",0.0343613766510533
"Signature.6",0.0117526008954995
"Signature.13",0
"Signature.17",0
