"","1","2;3","4"
"Signature.1",0.275770946851931,0.613459979098758,0.814192079255315
"Signature.2",0.0395565926996102,0.0657440343269035,0.185807920744685
"Signature.4",0.506583770193691,0,0
"Signature.5",0.178088690254768,0,0
"Signature.6",0,0,0
"Signature.13",0,0.320795986574338,0
"Signature.17",0,0,0
