"","1","2;5;8","3;6","4;7;9"
"Signature.1",0.251836669970418,0.811617930001021,0.493530161766444,0.939715449348366
"Signature.2",0,0.0761286680611835,0.0206715459936499,0.0326710874481279
"Signature.4",0.575159924587388,0,0,0
"Signature.5",0.173003405442194,0.0364227870548574,0.179276879487659,0
"Signature.6",0,0,0.26913624002963,0
"Signature.13",0,0,0.0373851727226175,0.0276134632035066
"Signature.17",0,0.0758306148829382,0,0
