"","1","2;3;4;5;7;8;9","6","10"
"Signature.1",0.336082181792448,0.687296652457996,0.495764082466579,1
"Signature.2",0,0.0856237420398578,0.293678644624209,0
"Signature.4",0.663917818207552,0.135853266239634,0,0
"Signature.5",0,0,0,0
"Signature.6",0,0.0912263392625127,0.065125612261217,0
"Signature.13",0,0,0.145431660647996,0
"Signature.17",0,0,0,0
