"","1;2;3;5","4"
"Signature.1",0.367040076522719,0
"Signature.2",0.0560011778574876,0
"Signature.4",0.100308928184563,0
"Signature.5",0.131018346667475,0
"Signature.6",0.345631470767756,1
"Signature.13",0,0
"Signature.17",0,0
