"","1;9","2;3;5;7;8","4","6"
"Signature.1",0.378080907214999,0.954898972366467,0.666023703241881,0
"Signature.2",0,0,0,0
"Signature.4",0.545926132551194,0,0,0.285617456887465
"Signature.5",0.051066741999024,0,0,0.714382543112535
"Signature.6",0.0249262182347825,0,0.18874032051707,0
"Signature.13",0,0,0,0
"Signature.17",0,0.0451010276335325,0.145235976241049,0
