"","1","2","3;5","4;6;7"
"Signature.1",0.136651185927619,0.556205744181641,0.714554860786776,0.45377883005616
"Signature.2",0.0311898484800974,0.253754216551645,0.222711827978589,0.0492896621696467
"Signature.4",0.567610936095985,0,0,0.192639909321424
"Signature.5",0.221039716987355,0.05961607170557,0,0.304291598452769
"Signature.6",0.0435083125089441,0.020858117839153,0,0
"Signature.13",0,0.109565849721991,0.0251897652187261,0
"Signature.17",0,0,0.0375435460159081,0
