"","1;4;6","2;3;5;7;8;9"
"Signature.1",0.369197428358525,0.949870723417032
"Signature.2",0,0
"Signature.4",0.542407349794928,0
"Signature.5",0.0394342418342337,0
"Signature.6",0.0489609800123137,0
"Signature.13",0,0
"Signature.17",0,0.050129276582968
