"","1","2;3;5;7;8;9","4;6"
"Signature.1",0.378954380503128,0.949870723417032,0.474928029776625
"Signature.2",0,0,0
"Signature.4",0.54598382049038,0,0.119754946395595
"Signature.5",0.0497920651658004,0,0
"Signature.6",0.0252697338406914,0,0.238927224080528
"Signature.13",0,0,0
"Signature.17",0,0.050129276582968,0.166389799747252
