"","1;2;6","3;5","4","9"
"Signature.1",0.407444928660076,0.994196532600107,1,1
"Signature.2",0.0397053760340434,0.00580346739989305,0,0
"Signature.4",0.27249159804015,0,0,0
"Signature.5",0.217989956604566,0,0,0
"Signature.6",0,0,0,0
"Signature.13",0.0623681406611643,0,0,0
"Signature.17",0,0,0,0
