"","1;4;7;8;9","2","3;5"
"Signature.1",0.0191151918521077,0.491035555965992,0.449716220424628
"Signature.2",0,0.0516843188413549,0
"Signature.4",0.677825886825744,0.303048022738578,0.0890609370106374
"Signature.5",0.167889017969274,0.0552592063516144,0.210332419423996
"Signature.6",0.135169903352874,0.0989728961024606,0.250890423140739
"Signature.13",0,0,0
"Signature.17",0,0,0
