"","1;7;10","2;3;4;5;6;8;9"
"Signature.1",0.337057059302773,0.672528181714655
"Signature.2",0,0.129995974412529
"Signature.4",0.662942940697227,0.176197452792991
"Signature.5",0,0
"Signature.6",0,0.0212783910798243
"Signature.13",0,0
"Signature.17",0,0
