"","1;4;5;6;7;8","2","3"
"Signature.1",0.592769426045401,0.113771528804013,1
"Signature.2",0.0508715972930388,0.024564544254992,0
"Signature.4",0.0271717038295127,0.150759086371046,0
"Signature.5",0,0.597035886495767,0
"Signature.6",0,0.0587159496646173,0
"Signature.13",0.329187272832047,0.0551530044095647,0
"Signature.17",0,0,0
