"","1;4;6","2","3","5"
"Signature.1",0.0931102329315211,0.315168618423014,0.451994061802009,1
"Signature.2",0,0,0.0389674597954226,0
"Signature.4",0.739034027809697,0.218846059922255,0,0
"Signature.5",0.155309992607406,0.285066910743815,0.509038478402569,0
"Signature.6",0.0125457466513766,0.180918410910916,0,0
"Signature.13",0,0,0,0
"Signature.17",0,0,0,0
