"","1","2","3","4"
"Signature.1",0.148895542510398,0.279491402831386,1,0.908993344875952
"Signature.2",0,0.0602294651121854,0,0
"Signature.4",0.670937583789841,0.369518886514461,0,0
"Signature.5",0.0744839492475511,0.290760245541968,0,0.0910066551240482
"Signature.6",0.10568292445221,0,0,0
"Signature.13",0,0,0,0
"Signature.17",0,0,0,0
