"","1;4","2;5","3;6"
"Signature.1",0.0930415177973328,0.527332111211432,0.516770402919225
"Signature.2",0,0,0.0418804519098781
"Signature.4",0.73906162810843,0.173960108238946,0
"Signature.5",0.155333968384016,0.0479469844180071,0.441349145170897
"Signature.6",0.0125628857102207,0.250760796131614,0
"Signature.13",0,0,0
"Signature.17",0,0,0
