"","1","2;5;7;9","3;6;8;10","4"
"Signature.1",0.0611568117205388,0.552871736721515,0.478879400604255,0.178265137157621
"Signature.2",0.053124184682879,0.22414397268172,0.056113868705107,0.197830922815883
"Signature.4",0.386597677146352,0,0.0127312544850975,0.112603115869674
"Signature.5",0.465356028351105,0,0.257789004895171,0.28238997340678
"Signature.6",0,0,0,0.0421521340446755
"Signature.13",0.0337652980991253,0.222984290596765,0.152414149100912,0.120862988476036
"Signature.17",0,0,0.0420723222094577,0.0658957282293305
