"","1","2","3"
"Signature.1",0.306482585865282,0.886790945976134,0.836923576603898
"Signature.2",0.0433456071708704,0.113209054023866,0
"Signature.4",0.515685612520192,0,0
"Signature.5",0.134486194443656,0,0
"Signature.6",0,0,0
"Signature.13",0,0,0.143058740832694
"Signature.17",0,0,0.0200176825634084
