"","1;4;5","2;3"
"Signature.1",0.360424630661066,0.195523628032122
"Signature.2",0.0775581401323749,0.0553997119714742
"Signature.4",0.221644261127425,0
"Signature.5",0.209136097214642,0
"Signature.6",0,0.600715494206818
"Signature.13",0.131236870864492,0.148361165789585
"Signature.17",0,0
