"","1;4","2","3","5"
"Signature.1",0.2652769087772,0.1989901660717,0.430295187100644,1
"Signature.2",0.199142829621741,0,0,0
"Signature.4",0.14169109130594,0,0.153589876265215,0
"Signature.5",0.164731462440057,0,0,0
"Signature.6",0,0.4379537833342,0.416114936634141,0
"Signature.13",0.229157707855062,0.202550898539594,0,0
"Signature.17",0,0.160505152054506,0,0
